[
  {
    "name": "Duplicate Label Subsystem 1",
    "label": "duplicate-label"
  },
  {
    "name": "Duplicate Label Subsystem 2",
    "label": "duplicate-label"
  },
  {
    "name": "Subsystem",
    "label": "label"
  }
]
